…
Here we want to obtain the counts of by employer and total count as
well.

``` r
#Counts by employer 
library(dplyr)
data %>% count(Company) %>% arrange(-n)
```

    ## # A tibble: 331 × 2
    ##    Company                                                 n
    ##    <chr>                                               <int>
    ##  1 McGill University                                      25
    ##  2 McGill University - Desautels Faculty of Management    18
    ##  3 <NA>                                                   15
    ##  4 McGill University - Macdonald Campus                   11
    ##  5 Deloitte                                                8
    ##  6 Scotiabank                                              7
    ##  7 Pratt & Whitney Canada                                  6
    ##  8 Rogers Communications                                   6
    ##  9 BOMBARDIER                                              5
    ## 10 Air Transat                                             4
    ## # … with 321 more rows
…
